Governors: Temperance
…
The life insurer asks: How many years, on average, will this year’s US Senate candidates live after their election, given their age, party, and election result?

The researcher asks: What is the average causal effect of winning an election — for any elected office, from senator to governor to mayor — rather than losing it, on the number of years a candidate lives afterward?

Note that we use the same data, and the same fitted model, to help both people.

The setup chunk of this document carries forward the work from Wisdom and Courage: the close-election tibble x and the fitted model fit_governors are already built, so today starts at the answering.

Temperance

Predictions

Use predictions(fit_governors) to estimate the years lived after the election for individual candidates in the sample.

# A tibble: 254 × 24
   rowid estimate std.error statistic   p.value s.value conf.low conf.high state
   <int>    <dbl>     <dbl>     <dbl>     <dbl>   <dbl>    <dbl>     <dbl> <chr>
 1     1     25.1      1.57     16.0  2.00e- 57   188.      22.0      28.2 Alab…
 2     2     23.2      1.53     15.1  1.66e- 51   169.      20.2      26.2 Alab…
 3     3     26.9      1.75     15.4  1.63e- 53   175.      23.5      30.4 Alas…
 4     4     39.5      1.84     21.4  4.74e-102   337.      35.9      43.1 Alas…
 5     5     23.8      1.30     18.3  1.81e- 74   245.      21.2      26.4 Alas…
 6     6     35.9      1.28     28.1  3.64e-174   576.      33.4      38.4 Alas…
 7     7     14.7      1.77      8.33 7.75e- 17    53.5     11.3      18.2 Alas…
 8     8     33.4      1.63     20.5  9.57e- 94   309.      30.2      36.6 Alas…
 9     9     16.7      1.80      9.27 1.83e- 20    65.6     13.2      20.3 Alas…
10    10     17.2      1.47     11.7  2.07e- 31   102.      14.3      20.1 Ariz…
# ℹ 244 more rows
# ℹ 15 more variables: year <dbl>, first_name <chr>, last_name <chr>,
#   party <chr>, sex <chr>, died <date>, status <chr>, win_margin <dbl>,
#   region <chr>, outcome <chr>, election_age <dbl>, death_age <dbl>,
#   lived_after <dbl>, election_result <chr>, df <dbl>
…
